{
    "authenticators": [],
    "policies": [],
    "mappers": [
        {
            "name": "My Mapper",
            "fileName": "my-script-mapper.js",
            "description": "My Mapper from a JS file"
        }
    ]
}